adder/16bitfa/fulladder16_waveform.vcd
$date
     Mar 27, 2023       14:58:00
$end

$version
              SystemC 2.3.0_pub_rev_20111121-OSCI --- Mar 13 2023 10:35:45
$end

$timescale
     1 ps
$end

$scope module SystemC $end
$var wire   16  aaaaa  a [15:0]  $end
$var wire   16  aaaab  b [15:0]  $end
$var wire   16  aaaac  cin [15:0]  $end
$var wire   16  aaaad  sum [15:0]  $end
$var wire    1  aaaae  c_out       $end
$upscope $end
$enddefinitions  $end

$comment
All initial values are dumped below at time 0 sec = 0 timescale units.
$end

$dumpvars
b1000001010011 aaaaa
b110111101100101 aaaab
b1001 aaaac
b111111110111001 aaaad
1aaaae
$end

#1000
b1110101011101011 aaaaa
b1100101010000000 aaaab
b1110 aaaac
b1011010101101011 aaaad
0aaaae

#2000
b1000110110100100 aaaaa
b1000110100110101 aaaab
b1101011011001 aaaad

#3000
b110000111100001 aaaaa
b1101000011010011 aaaab
b10 aaaac
b11001010110100 aaaad
1aaaae

#4000
b1101101101111 aaaaa
b11100110000010 aaaab
b1100 aaaac
b101010011110001 aaaad
0aaaae

#5000
b1111011000111001 aaaaa
b101110111001001 aaaab
b111 aaaac
b101010000000011 aaaad
1aaaae

#6000
b1010100011100010 aaaaa
b10011110101011 aaaab
b11 aaaac
b1101000010001110 aaaad

#7000
b1110100001011001 aaaaa
b1111010101100 aaaab
b1010 aaaac
b11100000101 aaaad
0aaaae

#8000
b1011000010101000 aaaaa
b101111101001100 aaaab
b101 aaaac
b111111110101 aaaad

#9000
b1110101111100011 aaaaa
b101001010100 aaaab
b1111011000111000 aaaad
1aaaae

#10000
b1101101010011100 aaaaa
b1101010101000 aaaab
b1011 aaaac
b1111010101000101 aaaad
0aaaae

#11000
b110100110010101 aaaaa
b10110010011 aaaab
b110111100101001 aaaad
1aaaae

#12000
b1100100011110011 aaaaa
b1001001100111000 aaaab
b0 aaaac
b101110000101011 aaaad
0aaaae

#13000
b1000110010 aaaaa
b1111010100011001 aaaab
b100 aaaac
b1111011101001011 aaaad

#14000
b111010110110100 aaaaa
b1000010001000 aaaab
b110 aaaac
b1000011000111100 aaaad

#15000
b101010101110000 aaaaa
b11011000001 aaaab
b1111 aaaac
b101110000110010 aaaad
1aaaae

